2020-11-02 13:17:53,409:INFO:Started Grid Search for Gurobi Two Phases Single C Models on synthetic dataset
2020-11-02 13:17:56,227:INFO:*** Red conservative metric GridSearch ***
2020-11-02 13:17:58,187:INFO:Called src.model_selection grid_search
2020-11-02 13:17:58,187:INFO:dataset_loader: <function <lambda> at 0x000001CBB4C0ACA0>
2020-11-02 13:17:58,188:INFO:estimator: ShadowedSetEstimator(solver='gurobi-two-phases-single-C')
2020-11-02 13:17:58,189:INFO:metric: <function conservative_score at 0x000001CBAD651790>
2020-11-02 13:17:58,189:INFO:param_grid: {'C': array([0.1       , 0.17782794, 0.31622777, 0.56234133, 1.        ]), 'sigma': array([ 0.1       ,  0.31622777,  1.        ,  3.16227766, 10.        ])}
2020-11-02 13:17:58,189:INFO:splitter: StratifiedShuffleSplit(n_splits=1, random_state=42, test_size=0.3,
            train_size=None)
2020-11-02 13:17:58,189:INFO:cv: StratifiedKFold(n_splits=10, random_state=42, shuffle=True)
2020-11-02 13:17:58,195:INFO:X_train: [[ 0.09411963 -0.29482039]
 [ 0.89565692 -0.52752239]
 [-0.98771868 -0.19015556]
 [ 0.25983743  0.0897648 ]
 [ 0.089793   -0.271312  ]
 [-0.41215659 -0.92593174]
 [ 0.69455383  0.62042534]
 [ 0.17338995 -0.20334788]
 [-0.0255296  -0.27403992]
 [ 0.25140275  0.23671411]
 [-0.46052936 -0.8292799 ]
 [-0.30165881 -0.10586906]
 [-0.72291269 -0.56479648]
 [ 0.01436286  1.06418992]
 [-0.57386708 -0.73197009]
 [ 1.05045903 -0.14594302]
 [ 0.43073451 -0.8897614 ]
 [-0.94500439  0.13985907]
 [-0.89005318  0.370912  ]
 [-0.81433541 -0.30432872]
 [ 0.21186928  0.99755838]
 [-0.07032026 -1.00172648]
 [-1.07170444 -0.00957664]
 [-0.74442325 -0.64435645]
 [ 0.17460745 -0.11312471]
 [-0.84530003  0.48919721]
 [ 0.26442304  0.0304056 ]
 [ 0.93038381  0.41467126]
 [ 0.95503114  0.21803515]
 [ 0.68396959 -0.56520705]
 [-0.32413321 -0.95128466]
 [-0.15       -0.3       ]
 [-0.27369415 -0.14766689]
 [-0.80553436  0.63696047]
 [-0.25547561 -0.18084728]
 [ 0.29344865 -0.18874709]
 [ 0.25120374  0.23399784]
 [-0.11737672 -0.23915882]
 [ 0.11978664  1.04093016]
 [-0.35247115 -0.01388151]
 [-0.13279258 -0.2096713 ]
 [-0.23056019 -0.11176385]
 [ 0.29267395  0.06774338]
 [ 0.95750144  0.01756343]
 [ 0.21159324 -0.19411001]
 [-0.26343169  0.18034551]
 [ 0.77153634 -0.71556529]
 [-0.31385896 -0.04789331]
 [ 0.10790607 -0.21593051]
 [-0.89301903  0.46586133]
 [ 0.24938266  0.27325817]
 [-0.11117328  0.31875322]
 [ 0.01648819 -1.02367499]
 [ 0.10561605  0.15368095]
 [ 0.20371914  0.02822707]
 [-0.1668936   0.24953319]
 [-0.58179248 -0.74493663]
 [-0.5510602  -0.85674186]
 [ 0.32699487 -0.01666924]
 [-0.22798724  0.25754308]
 [-0.86866365 -0.46910451]
 [ 0.99606198 -0.31223348]
 [ 0.7         0.6       ]
 [ 0.23156579 -0.25413261]
 [ 0.94745869 -0.1420741 ]
 [ 0.96478863 -0.37473952]
 [-0.1825422   0.27972214]
 [-0.2942555  -0.08871803]
 [ 0.02180461 -0.28825863]
 [-0.18769127 -0.96213128]
 [-0.31224012  0.0847981 ]
 [-0.07413704  0.23363842]
 [-0.28478342  0.20458577]
 [-1.00145996 -0.12772278]
 [-0.15149264  1.03957185]
 [ 0.41975457 -1.02028305]
 [ 0.48624839  0.93172505]
 [-0.33016341  0.95808841]
 [-0.20343379  0.93838794]
 [-0.02598516 -0.28882536]
 [-1.06345201  0.31271693]
 [ 0.73705311  0.69552086]
 [ 0.28419535 -0.96395922]
 [ 0.38334701  0.94263686]
 [ 0.99606901  0.20131747]
 [-0.99091733 -0.27247345]
 [ 0.0497192   0.36026156]
 [-0.28889276 -0.02324277]
 [ 0.15455059 -0.31718266]
 [-0.21475806 -0.97424947]
 [ 0.24704232 -0.27183856]
 [ 0.32618992  0.03193248]
 [-0.88140416 -0.47964697]
 [-0.20164448  0.20104346]
 [-0.14530816 -0.25075197]
 [ 1.05771772 -0.02386909]
 [ 0.06649309 -0.25572855]
 [-0.13136635  0.26777749]
 [-0.36080945 -0.94818436]
 [-0.28849688  0.02669105]
 [-0.08219398 -1.03144683]
 [-0.12399801 -0.19187179]
 [-0.27025153  0.17132949]
 [-0.01058602  0.25661157]
 [-0.20454138  1.00517107]
 [ 0.30292545  0.11739985]
 [ 0.8882616   0.52384707]
 [-0.13894864 -0.24826106]
 [ 0.07184641  0.36199803]
 [ 0.91057013  0.50334243]
 [-1.06436832  0.02939527]
 [-0.09916641 -0.22292192]
 [ 0.06298666  0.26619219]
 [ 0.8         0.4       ]
 [ 0.70451611  0.67630683]
 [-0.35249426  0.12218743]
 [-0.17152889 -0.07239376]
 [-0.9451891   0.26121425]
 [ 0.66252188 -0.64986672]
 [-0.96638525  0.18556499]
 [-0.22507081  0.03287207]
 [-0.93219104 -0.48718199]
 [-0.04338205  0.30729309]
 [-0.30257237 -0.0115385 ]
 [-0.1995887  -0.23850834]
 [ 0.95432802 -0.06295532]
 [ 0.1425443   0.23615887]
 [-0.30053006 -0.01743902]
 [-0.22       -0.33      ]
 [ 0.16851676 -0.26969403]
 [-0.59317447  0.74728676]
 [ 0.11566169  1.00059477]
 [-0.68311608  0.77739979]
 [ 0.54714121  0.886698  ]
 [ 0.35657593 -0.13241326]
 [ 0.16270372  0.04764041]
 [ 0.05613388 -0.37205979]
 [-0.50337246 -0.9054716 ]
 [-0.13155664  0.27800942]
 [-0.19622734  0.23285908]
 [-0.90514216  0.3725682 ]
 [ 0.6047763   0.80864799]]
2020-11-02 13:17:58,196:INFO:y_train: 198   -1
148    1
138    1
195   -1
15    -1
      ..
10     1
139   -1
29    -1
117    1
1      1
Length: 142, dtype: int64
2020-11-02 13:17:58,197:INFO:label_train: 198    blue
148     red
138     red
195    blue
15     blue
       ... 
10      red
139    blue
29     blue
117     red
1       red
Length: 142, dtype: object
2020-11-02 13:17:58,198:INFO:X_test: [[ 0.7511687  -0.44752156]
 [-0.36736739  0.95188019]
 [-0.71742094  0.64410026]
 [-0.27159538 -0.99988281]
 [ 0.2876408  -0.15719942]
 [-0.9505993   0.29074003]
 [ 0.26762234 -0.96624974]
 [-0.32006154 -0.12375966]
 [ 0.00348284  0.29522464]
 [ 0.85628608 -0.52446491]
 [ 0.29183229  0.19410084]
 [ 0.06002058  1.09080439]
 [-0.52371011  0.94669787]
 [ 0.92232106 -0.33009191]
 [ 0.23736655 -0.02360487]
 [ 0.20548201  1.01135296]
 [ 0.95729442 -0.35952401]
 [ 0.08074386  0.32801569]
 [-0.27764463 -0.26089743]
 [ 0.60975161 -0.81444189]
 [ 0.34763749 -0.25057114]
 [ 0.20061945 -0.2172888 ]
 [ 0.98199183  0.12837806]
 [-0.61001019  0.72556038]
 [ 0.28657337  0.14724363]
 [ 0.34745273  0.08889611]
 [ 0.78136961  0.65311862]
 [ 0.89342825  0.23397857]
 [ 0.24659584  0.31232139]
 [ 0.27946451  0.30402501]
 [ 0.31040154  0.95742479]
 [ 0.15769137 -0.98580996]
 [ 0.46768442  0.79307202]
 [ 0.35377722 -0.84529069]
 [ 0.04056321 -0.37464235]
 [ 0.00901443 -0.18676226]
 [ 0.09328941 -0.25551676]
 [ 0.08810557 -0.21409806]
 [-0.23757458  0.16794396]
 [-0.09630579  0.36388696]
 [ 0.08875485 -0.29604838]
 [ 0.30950063  0.05127884]
 [ 0.25777126  0.2805641 ]
 [-0.84657597 -0.64430665]
 [-0.39653997  0.02228722]
 [ 0.14439356  0.22509248]
 [-0.03203686  0.24117816]
 [ 0.23067316  0.09978251]
 [ 0.70929181 -0.77014792]
 [-0.86158216 -0.24116642]
 [-0.86614857  0.65554781]
 [-0.34815078  0.048859  ]
 [-0.27065215  0.89356689]
 [-0.57113725  0.81527817]
 [ 0.16796809 -1.02656287]
 [ 0.5959948   0.74325478]
 [-0.17236238  0.31372152]
 [ 0.57432566 -0.78090845]
 [ 0.92060986  0.47489978]
 [-0.31389027  0.10999651]
 [ 0.09983675  0.3479961 ]
 [ 0.1818945  -0.27742662]]
2020-11-02 13:17:58,199:INFO:y_test: 197    1
62     1
42     1
194    1
84    -1
      ..
26     1
153    1
105   -1
44    -1
163   -1
Length: 62, dtype: int64
2020-11-02 13:17:58,199:INFO:label_test: 197     red
62      red
42      red
194     red
84     blue
       ... 
26      red
153     red
105    blue
44     blue
163    blue
Length: 62, dtype: object
2020-11-02 13:17:58,200:INFO:***** Split n. 0
2020-11-02 13:17:58,203:INFO:GridSearchCV: GridSearchCV(cv=StratifiedKFold(n_splits=10, random_state=42, shuffle=True),
             estimator=ShadowedSetEstimator(solver='gurobi-two-phases-single-C'),
             param_grid={'C': array([0.1       , 0.17782794, 0.31622777, 0.56234133, 1.        ]),
                         'sigma': array([ 0.1       ,  0.31622777,  1.        ,  3.16227766, 10.        ])},
             scoring=make_scorer(conservative_score), verbose=1)
2020-11-02 13:17:58,208:INFO:Using license file C:\Users\gabri\gurobi.lic
2020-11-02 13:17:58,209:INFO:Academic license - for non-commercial use only
2020-11-02 13:18:50,108:INFO:cv_results of best_index: mean_fit_time                                        0.204334
std_fit_time                                       0.00365298
mean_score_time                                    0.00946143
std_score_time                                     0.00044516
param_C                                                   0.1
param_sigma                                          0.316228
params               {'C': 0.1, 'sigma': 0.31622776601683794}
split0_test_score                                    0.733333
split1_test_score                                    0.933333
split2_test_score                                    0.785714
split3_test_score                                    0.785714
split4_test_score                                    0.785714
split5_test_score                                    0.785714
split6_test_score                                           1
split7_test_score                                    0.785714
split8_test_score                                    0.642857
split9_test_score                                    0.857143
mean_test_score                                      0.809524
std_test_score                                      0.0950236
rank_test_score                                             1
Name: 1, dtype: object
2020-11-02 13:18:50,155:INFO:best_estimator: ShadowedSetEstimator(C=0.1,
                     k=<src.kernel.GaussianKernel object at 0x000001CBB4CEF4C0>,
                     sigma=0.31622776601683794,
                     solver='gurobi-two-phases-single-C')
2020-11-02 13:18:50,155:INFO:score on test: 0.8387096774193549
